<svg width="20" height="20" viewBox="0 0 20 20" fill="none" xmlns="http://www.w3.org/2000/svg">
<path d="M3.33301 5.83301L5.83301 8.33301M16.6663 5.83301L3.33301 5.83301L16.6663 5.83301ZM3.33301 5.83301L5.83301 3.33301L3.33301 5.83301Z" stroke="black" stroke-width="1.25" stroke-linecap="round" stroke-linejoin="round"/>
<path d="M16.6663 14.167L14.1663 16.667M3.33301 14.167H16.6663H3.33301ZM16.6663 14.167L14.1663 11.667L16.6663 14.167Z" stroke="black" stroke-width="1.25" stroke-linecap="round" stroke-linejoin="round"/>
</svg>
