<svg width="20" height="20" viewBox="0 0 20 20" fill="none" xmlns="http://www.w3.org/2000/svg">
<path d="M1.66699 15V5C1.66699 3.61929 2.78628 2.5 4.16699 2.5H5.83366C7.21437 2.5 8.33366 3.61929 8.33366 5V15C8.33366 16.3807 7.21437 17.5 5.83366 17.5H4.16699C2.78628 17.5 1.66699 16.3807 1.66699 15Z" stroke="black" stroke-width="1.25"/>
<path d="M13.333 2.5H14.9997C16.8406 2.5 18.333 3.99238 18.333 5.83333V14.1667C18.333 16.0076 16.8406 17.5 14.9997 17.5H13.333" stroke="black" stroke-width="1.25" stroke-linecap="round" stroke-linejoin="round"/>
<path d="M14.9997 10L12.4997 12.5M8.33301 10H14.9997H8.33301ZM14.9997 10L12.4997 7.5L14.9997 10Z" stroke="black" stroke-width="1.25" stroke-linecap="round" stroke-linejoin="round"/>
</svg>
