<svg width="24" height="24" viewBox="0 0 24 24" fill="none" xmlns="http://www.w3.org/2000/svg">
<path d="M8.95312 5.25V18.75H6.75V5.25H8.95312ZM9.70312 4.5H6V19.5H9.70312V4.5Z" fill="black"/>
<path d="M17.25 5.25V18.75H15.0469V5.25H17.25ZM18 4.5H14.2969V19.5H18V4.5Z" fill="black"/>
</svg>
