<svg width="12" height="12" viewBox="0 0 12 12" fill="none" xmlns="http://www.w3.org/2000/svg">
<path d="M3 3.5V8.5" stroke="#404040" stroke-linecap="round" stroke-linejoin="round"/>
<path d="M8.51452 2.63345C8.71127 2.47814 9.00042 2.61826 9.00042 2.86892V9.13081C9.00042 9.38146 8.71127 9.52156 8.51452 9.36626L4.54868 6.2353C4.39654 6.1152 4.39654 5.8845 4.54868 5.7644L8.51452 2.63345Z" stroke="#404040" stroke-linecap="round" stroke-linejoin="round"/>
</svg>
