<svg width="19" height="19" viewBox="0 0 19 19" fill="none" xmlns="http://www.w3.org/2000/svg">
<path d="M12.2705 13.8535L15.0413 16.6243" stroke="#808080" stroke-width="1.25" stroke-linecap="round" stroke-linejoin="round"/>
<path d="M3.95801 10.291C3.95801 12.9144 6.08465 15.041 8.70801 15.041C10.0219 15.041 11.2113 14.5075 12.0712 13.6453C12.9282 12.7861 13.458 11.6004 13.458 10.291C13.458 7.66766 11.3314 5.54102 8.70801 5.54102C6.08465 5.54102 3.95801 7.66766 3.95801 10.291Z" stroke="#808080" stroke-width="1.25" stroke-linecap="round" stroke-linejoin="round"/>
</svg>
