<svg width="21" height="21" viewBox="0 0 21 21" fill="none" xmlns="http://www.w3.org/2000/svg">
<path fill-rule="evenodd" clip-rule="evenodd" d="M10.5 3.5C10.8513 3.5 11.1966 3.52588 11.534 3.57584L12.0419 5.11496C12.4873 5.24226 12.9101 5.42335 13.3027 5.65074L14.7627 4.94713C15.2793 5.34432 15.739 5.812 16.1272 6.33578L15.3979 7.78299C15.6181 8.17903 15.7916 8.60458 15.911 9.05219L17.4409 9.58601C17.4799 9.88515 17.5 10.1902 17.5 10.5C17.5 10.8513 17.4741 11.1966 17.4242 11.534L15.885 12.0419C15.7577 12.4873 15.5767 12.9101 15.3493 13.3027L16.0529 14.7627C15.6557 15.2793 15.188 15.739 14.6642 16.1272L13.217 15.3979C12.821 15.6181 12.3954 15.7916 11.9478 15.911L11.414 17.4409C11.1149 17.4799 10.8098 17.5 10.5 17.5C10.1487 17.5 9.80339 17.4741 9.46596 17.4242L8.9581 15.885C8.51265 15.7577 8.0899 15.5767 7.69731 15.3493L6.23731 16.0529C5.72067 15.6557 5.26103 15.188 4.87279 14.6642L5.60211 13.217C5.38178 12.8207 5.20816 12.3948 5.08869 11.9468L3.559 11.413C3.52008 11.1142 3.5 10.8094 3.5 10.5C3.5 10.1487 3.52588 9.80339 3.57584 9.46596L5.11496 8.9581C5.24226 8.51265 5.42335 8.0899 5.65074 7.69731L4.94713 6.23731C5.34432 5.72067 5.812 5.26103 6.33578 4.87279L7.78299 5.60211C8.17933 5.38178 8.60521 5.20816 9.05319 5.08869L9.58701 3.559C9.88583 3.52008 10.1906 3.5 10.5 3.5V3.5Z" stroke="black" stroke-width="1.25" stroke-linecap="round" stroke-linejoin="round"/>
<path d="M10.5 13.5C12.1569 13.5 13.5 12.1569 13.5 10.5C13.5 8.84315 12.1569 7.5 10.5 7.5C8.84315 7.5 7.5 8.84315 7.5 10.5C7.5 12.1569 8.84315 13.5 10.5 13.5Z" stroke="black" stroke-width="1.25" stroke-linecap="round" stroke-linejoin="round"/>
</svg>
